Full Luxury Bayesian Structural Equation Modeling with brms
…
# A tibble: 2 × 2
  .category .linpred
  <fct>        <dbl>
1 rich         NA   
2 firesev       4.53

These are nice, and it’s easy to manipulate the output to, say, get the richness value based on average predictions. What if we want more though? Let’s say we want fit, but, we want to fully propogate uncertainty in parameters through - and not just for one value of age, but a lot of them! Now we want to look at the posterior. Let’s look at this with linpred_draws

new_age_dat_more <- data.frame(age = 1:10, firesev = NA)

linpred_draws(rich_brms, new_age_dat_more) |>
  filter(.category=="firesev") 

# A tibble: 40,000 × 8
# Groups:   age, firesev, .row, .category [10]
     age firesev  .row .chain .iteration .draw .category .linpred
   <int> <lgl>   <int>  <int>      <int> <int> <fct>        <dbl>
 1     1 NA          1     NA         NA     1 firesev       3.28
 2     1 NA          1     NA         NA     2 firesev       2.97
 3     1 NA          1     NA         NA     3 firesev       2.73
 4     1 NA          1     NA         NA     4 firesev       3.33
 5     1 NA          1     NA         NA     5 firesev       3.14
 6     1 NA          1     NA         NA     6 firesev       3.24
 7     1 NA          1     NA         NA     7 firesev       2.95
 8     1 NA          1     NA         NA     8 firesev       3.25
 9     1 NA          1     NA         NA     9 firesev       3.35
10     1 NA          1     NA         NA    10 firesev       2.87
# ℹ 39,990 more rows
…
rich_pred_fit <- linpred_draws(rich_brms, 
              newdata = new_age_dat_more, 
              ndraws = 100) |>
  filter(.category=="firesev") |>
  ungroup() |>
  select(age, .linpred) |>
  rename(firesev = .linpred) |>
  linpred_draws(rich_brms, 
                newdata = _,
                ndraws = 100) 

rich_pred_fit

# A tibble: 200,000 × 8
# Groups:   age, firesev, .row, .category [2,000]
     age firesev  .row .chain .iteration .draw .category .linpred
   <int>   <dbl> <int>  <int>      <int> <int> <fct>        <dbl>
 1     1    3.64     1     NA         NA     1 rich          57.0
 2     1    3.64     1     NA         NA     2 rich          54.1
 3     1    3.64     1     NA         NA     3 rich          51.9
 4     1    3.64     1     NA         NA     4 rich          56.7
 5     1    3.64     1     NA         NA     5 rich          61.0
 6     1    3.64     1     NA         NA     6 rich          56.3
 7     1    3.64     1     NA         NA     7 rich          60.5
 8     1    3.64     1     NA         NA     8 rich          61.2
 9     1    3.64     1     NA         NA     9 rich          56.1
10     1    3.64     1     NA         NA    10 rich          54.6
# ℹ 199,990 more rows
…
